[{
  "id": 1,
  "productName": "Apple iPhone 14 Pro 256GB ",
  "price": 59999,
  "imgUrl": "https://www.istore.ua/upload/iblock/470/z6h2othyor9pdqseuydm53v2hbzt44sk/14_pro_max_gpurpl_3_is.png",
  "vendorСode": "001",
  "color": "Deep Purple",
  "cart": {
    "inCart": false,
    "count": 0
  },
  "isFavourite": false
},
{
  "id": 2,
  "productName": "Apple iPhone 14 Pro 512GB ",
  "price": 59999,
  "imgUrl": "https://www.istore.ua/upload/iblock/57c/bl8zy69smg4ckgv6vx87ugkbsbim71nd/14_pro_max_gold_3_is.png",
  "vendorСode": "002",
  "color": "Gold",
  "cart": {
    "inCart": false,
    "count": 0
  },
  "isFavourite": false
},
{
  "id": 3,
  "productName": "Apple iPhone 14 Pro 128GB ",
  "price": 60000,
  "imgUrl": "https://www.istore.ua/upload/iblock/292/3mdal83bljqt9hsj1tvsc42bd5l0emzs/14_pro_space_black_3_is.png",
  "vendorСode": "003",
  "color": "Graphite",
  "cart": {
    "inCart": false,
    "count": 0
  },
  "isFavourite": false
},
{
  "id": 4,
  "productName": "Apple iPhone 14 Pro 128G ",
  "price": 59000,
  "imgUrl": "https://www.istore.ua/upload/iblock/0ff/ok7cvzl7pnzv7ytzk5s7dd9tmqjdmmsa/14_pro_max_silver_3_is.png",
  "vendorСode": "004",
  "color": "Silver",
  "cart": {
    "inCart": false,
    "count": 0
  },
  "isFavourite": false
},
{
  "id": 5,
  "productName": "Apple iPhone 14 256GB ",
  "price": 36000,
  "imgUrl": "https://www.istore.ua/upload/iblock/65e/sj9g5k3b241a6uugxq9lojbl9pbvynbl/14_star_black_1_is.png",
  "vendorСode": "005",
  "color": "Midnight",
  "cart": {
    "inCart": false,
    "count": 0
  },
  "isFavourite": false
},
{
  "id": 6,
  "productName": "Apple iPhone 14 128GB ",
  "price": 35999,
  "imgUrl": "https://www.istore.ua/upload/iblock/786/jk7htpa8mi620ssplep2q999aj21nfu6/14_purpl_3_is.png",
  "vendorСode": "006",
  "color": "Purple",
  "cart": {
    "inCart": false,
    "count": 0
  },
  "isFavourite": false
},
{
  "id": 7,
  "productName": "Apple iPhone 14 256GB ",
  "price": 35999,
  "imgUrl": "https://www.istore.ua/upload/iblock/418/60v36v9382yd0u8i498yg51o8dnuxrhc/14_blue_3_is.png",
  "vendorСode": "007",
  "color": "Blue",
  "cart": {
    "inCart": false,
    "count": 0
  },
  "isFavourite": false
},
{
  "id": 8,
  "productName": "Apple iPhone 14 128GB ",
  "price": 36000,
  "imgUrl": "https://www.istore.ua/upload/iblock/970/uq7mirbqbimmnqbbrbw4znfkp6q9teto/14_red_3_is.png",
  "vendorСode": "008",
  "color": "Red",
  "cart": {
    "inCart": false,
    "count": 0
  },
  "isFavourite": false
},
{
  "id": 9,
  "productName": "Apple iPhone 14 128GB ",
  "price": 35999,
  "imgUrl": "https://www.istore.ua/upload/iblock/738/tmbxs68n03wn7dhc8uuj2u3pp07lf5ct/14_starlight_3_is.png",
  "vendorСode": "009",
  "color": "Starlight",
  "cart": {
    "inCart": false,
    "count": 0
  },
  "isFavourite": false
},
{
  "id": 10,
  "productName": "Apple iPhone 14 Pro Max 128GB ",
  "price": 50000,
  "imgUrl": "https://www.istore.ua/upload/iblock/42c/khqc9fgk0v1y5j48ihqe6hymud52cjpz/14_pro_max_gpurpl_3_is.png",
  "vendorСode": "010",
  "color": "Deep Purple",
  "cart": {
    "inCart": false,
    "count": 0
  },
  "isFavourite": false
},
{
  "id": 11,
  "productName": "Apple iPhone 14 Pro Max 512GB ",
  "price": 50999,
  "imgUrl": "https://www.istore.ua/upload/iblock/832/xxvqso63v0s99bl2s6ixf6mys66s78wa/14_pro_max_gold_3_is.png",
  "vendorСode": "011",
  "color": "Gold",
  "cart": {
    "inCart": false,
    "count": 0
  },
  "isFavourite": false
},
{
  "id": 12,
  "productName": "Apple iPhone 14 Pro Max 512B ",
  "price": 51000,
  "imgUrl": "https://www.istore.ua/upload/iblock/292/3mdal83bljqt9hsj1tvsc42bd5l0emzs/14_pro_space_black_3_is.png",
  "vendorСode": "012",
  "color": "Graphite",
  "cart": {
    "inCart": false,
    "count": 0
  },
  "isFavourite": false
}
]
